[0.000000] (-) TimerEvent: {}
[0.001837] (-) JobUnselected: {'identifier': 'cpp_oop'}
[0.001894] (-) JobUnselected: {'identifier': 'my_py_pkg'}
[0.001927] (my_cpp_pkg) JobQueued: {'identifier': 'my_cpp_pkg', 'dependencies': OrderedDict()}
[0.001957] (my_cpp_pkg) JobStarted: {'identifier': 'my_cpp_pkg'}
[0.037942] (my_cpp_pkg) JobProgress: {'identifier': 'my_cpp_pkg', 'progress': 'cmake'}
[0.038088] (my_cpp_pkg) JobProgress: {'identifier': 'my_cpp_pkg', 'progress': 'build'}
[0.040500] (my_cpp_pkg) Command: {'cmd': ['/usr/bin/cmake', '--build', '/home/salman/ros2_ws/build/my_cpp_pkg', '--', '-j2', '-l2'], 'cwd': '/home/salman/ros2_ws/build/my_cpp_pkg', 'env': OrderedDict([('GJS_DEBUG_TOPICS', 'JS ERROR;JS LOG'), ('LESSOPEN', '| /usr/bin/lesspipe %s'), ('LANGUAGE', 'en_CA:en'), ('USER', 'salman'), ('SSH_AGENT_PID', '1679'), ('XDG_SESSION_TYPE', 'x11'), ('SHLVL', '1'), ('LD_LIBRARY_PATH', '/opt/ros/foxy/opt/yaml_cpp_vendor/lib:/opt/ros/foxy/opt/rviz_ogre_vendor/lib:/opt/ros/foxy/lib/x86_64-linux-gnu:/opt/ros/foxy/lib'), ('HOME', '/home/salman'), ('OLDPWD', '/opt/ros/foxy/include'), ('DESKTOP_SESSION', 'ubuntu'), ('ROS_PYTHON_VERSION', '3'), ('GNOME_SHELL_SESSION_MODE', 'ubuntu'), ('GTK_MODULES', 'gail:atk-bridge'), ('MANAGERPID', '1465'), ('DBUS_SESSION_BUS_ADDRESS', 'unix:path=/run/user/1000/bus'), ('COLORTERM', 'truecolor'), ('IM_CONFIG_PHASE', '1'), ('COLCON_PREFIX_PATH', '/home/salman/ros2_ws/install'), ('ROS_DISTRO', 'foxy'), ('LOGNAME', 'salman'), ('JOURNAL_STREAM', '8:34979'), ('_', '/usr/bin/colcon'), ('ROS_VERSION', '2'), ('XDG_SESSION_CLASS', 'user'), ('USERNAME', 'salman'), ('TERM', 'xterm-256color'), ('GNOME_DESKTOP_SESSION_ID', 'this-is-deprecated'), ('ROS_LOCALHOST_ONLY', '0'), ('WINDOWPATH', '2'), ('PATH', '/opt/ros/foxy/bin:/usr/local/sbin:/usr/local/bin:/usr/sbin:/usr/bin:/sbin:/bin:/usr/games:/usr/local/games:/snap/bin'), ('SESSION_MANAGER', 'local/salman-VirtualBox:@/tmp/.ICE-unix/1739,unix/salman-VirtualBox:/tmp/.ICE-unix/1739'), ('INVOCATION_ID', 'd49a0b2eefc54d7a9fca6ed1cc338133'), ('XDG_MENU_PREFIX', 'gnome-'), ('GNOME_TERMINAL_SCREEN', '/org/gnome/Terminal/screen/2e3081bc_7db2_42ae_bdd2_779879fb6bf3'), ('XDG_RUNTIME_DIR', '/run/user/1000'), ('DISPLAY', ':0'), ('LANG', 'en_US.UTF-8'), ('XDG_CURRENT_DESKTOP', 'ubuntu:GNOME'), ('XMODIFIERS', '@im=ibus'), ('XDG_SESSION_DESKTOP', 'ubuntu'), ('XAUTHORITY', '/run/user/1000/gdm/Xauthority'), ('LS_COLORS', 'rs=0:di=01;34:ln=01;36:mh=00:pi=40;33:so=01;35:do=01;35:bd=40;33;01:cd=40;33;01:or=40;31;01:mi=00:su=37;41:sg=30;43:ca=30;41:tw=30;42:ow=34;42:st=37;44:ex=01;32:*.tar=01;31:*.tgz=01;31:*.arc=01;31:*.arj=01;31:*.taz=01;31:*.lha=01;31:*.lz4=01;31:*.lzh=01;31:*.lzma=01;31:*.tlz=01;31:*.txz=01;31:*.tzo=01;31:*.t7z=01;31:*.zip=01;31:*.z=01;31:*.dz=01;31:*.gz=01;31:*.lrz=01;31:*.lz=01;31:*.lzo=01;31:*.xz=01;31:*.zst=01;31:*.tzst=01;31:*.bz2=01;31:*.bz=01;31:*.tbz=01;31:*.tbz2=01;31:*.tz=01;31:*.deb=01;31:*.rpm=01;31:*.jar=01;31:*.war=01;31:*.ear=01;31:*.sar=01;31:*.rar=01;31:*.alz=01;31:*.ace=01;31:*.zoo=01;31:*.cpio=01;31:*.7z=01;31:*.rz=01;31:*.cab=01;31:*.wim=01;31:*.swm=01;31:*.dwm=01;31:*.esd=01;31:*.jpg=01;35:*.jpeg=01;35:*.mjpg=01;35:*.mjpeg=01;35:*.gif=01;35:*.bmp=01;35:*.pbm=01;35:*.pgm=01;35:*.ppm=01;35:*.tga=01;35:*.xbm=01;35:*.xpm=01;35:*.tif=01;35:*.tiff=01;35:*.png=01;35:*.svg=01;35:*.svgz=01;35:*.mng=01;35:*.pcx=01;35:*.mov=01;35:*.mpg=01;35:*.mpeg=01;35:*.m2v=01;35:*.mkv=01;35:*.webm=01;35:*.ogm=01;35:*.mp4=01;35:*.m4v=01;35:*.mp4v=01;35:*.vob=01;35:*.qt=01;35:*.nuv=01;35:*.wmv=01;35:*.asf=01;35:*.rm=01;35:*.rmvb=01;35:*.flc=01;35:*.avi=01;35:*.fli=01;35:*.flv=01;35:*.gl=01;35:*.dl=01;35:*.xcf=01;35:*.xwd=01;35:*.yuv=01;35:*.cgm=01;35:*.emf=01;35:*.ogv=01;35:*.ogx=01;35:*.aac=00;36:*.au=00;36:*.flac=00;36:*.m4a=00;36:*.mid=00;36:*.midi=00;36:*.mka=00;36:*.mp3=00;36:*.mpc=00;36:*.ogg=00;36:*.ra=00;36:*.wav=00;36:*.oga=00;36:*.opus=00;36:*.spx=00;36:*.xspf=00;36:'), ('GNOME_TERMINAL_SERVICE', ':1.85'), ('SSH_AUTH_SOCK', '/run/user/1000/keyring/ssh'), ('AMENT_PREFIX_PATH', '/home/salman/ros2_ws/install/my_py_pkg:/home/salman/ros2_ws/install/my_cpp_pkg:/home/salman/ros2_ws/install/cpp_oop:/home/salman/ros2_ws/install/cppOOP:/opt/ros/foxy'), ('SHELL', '/bin/bash'), ('QT_ACCESSIBILITY', '1'), ('GDMSESSION', 'ubuntu'), ('LESSCLOSE', '/usr/bin/lesspipe %s %s'), ('GPG_AGENT_INFO', '/run/user/1000/gnupg/S.gpg-agent:0:1'), ('GJS_DEBUG_OUTPUT', 'stderr'), ('QT_IM_MODULE', 'ibus'), ('PWD', '/home/salman/ros2_ws/build/my_cpp_pkg'), ('LC_ALL', 'en_US.UTF-8'), ('XDG_CONFIG_DIRS', '/etc/xdg/xdg-ubuntu:/etc/xdg'), ('XDG_DATA_DIRS', '/usr/share/ubuntu:/usr/local/share/:/usr/share/:/var/lib/snapd/desktop'), ('PYTHONPATH', '/home/salman/ros2_ws/install/my_py_pkg/lib/python3.8/site-packages:/opt/ros/foxy/lib/python3.8/site-packages'), ('COLCON', '1'), ('VTE_VERSION', '6003'), ('CMAKE_PREFIX_PATH', '/home/salman/ros2_ws/install/my_cpp_pkg:/home/salman/ros2_ws/install/cpp_oop:/home/salman/ros2_ws/install/cppOOP:/home/salman/ros2_ws/install/my_py_pkg:/opt/ros/foxy')]), 'shell': False}
[0.097902] (my_cpp_pkg) StdoutLine: {'line': b'-- Found ament_cmake: 0.9.8 (/opt/ros/foxy/share/ament_cmake/cmake)\n'}
[0.099537] (-) TimerEvent: {}
[0.154558] (my_cpp_pkg) StdoutLine: {'line': b'-- Using PYTHON_EXECUTABLE: /usr/bin/python3\n'}
[0.203814] (-) TimerEvent: {}
[0.304631] (-) TimerEvent: {}
[0.405166] (-) TimerEvent: {}
[0.505724] (-) TimerEvent: {}
[0.521576] (my_cpp_pkg) StdoutLine: {'line': b'-- Found rclcpp: 2.3.1 (/opt/ros/foxy/share/rclcpp/cmake)\n'}
[0.593423] (my_cpp_pkg) StdoutLine: {'line': b'-- Using all available rosidl_typesupport_c: rosidl_typesupport_fastrtps_c;rosidl_typesupport_introspection_c\n'}
[0.600698] (my_cpp_pkg) StdoutLine: {'line': b'-- Found rosidl_adapter: 1.2.1 (/opt/ros/foxy/share/rosidl_adapter/cmake)\n'}
[0.605888] (-) TimerEvent: {}
[0.706254] (-) TimerEvent: {}
[0.806729] (-) TimerEvent: {}
[0.823445] (my_cpp_pkg) StdoutLine: {'line': b'-- Using all available rosidl_typesupport_cpp: rosidl_typesupport_fastrtps_cpp;rosidl_typesupport_introspection_cpp\n'}
[0.906867] (-) TimerEvent: {}
[0.939244] (my_cpp_pkg) StdoutLine: {'line': b'-- Found rmw_implementation_cmake: 1.0.3 (/opt/ros/foxy/share/rmw_implementation_cmake/cmake)\n'}
[0.942437] (my_cpp_pkg) StdoutLine: {'line': b"-- Using RMW implementation 'rmw_fastrtps_cpp' as default\n"}
[1.007005] (-) TimerEvent: {}
[1.107552] (-) TimerEvent: {}
[1.208057] (-) TimerEvent: {}
[1.289944] (my_cpp_pkg) StdoutLine: {'line': b'-- Found example_interfaces: 0.9.1 (/opt/ros/foxy/share/example_interfaces/cmake)\n'}
[1.308308] (-) TimerEvent: {}
[1.408793] (-) TimerEvent: {}
[1.509692] (-) TimerEvent: {}
[1.610174] (-) TimerEvent: {}
[1.684744] (my_cpp_pkg) StdoutLine: {'line': b'-- Configuring done\n'}
[1.710363] (-) TimerEvent: {}
[1.719938] (my_cpp_pkg) StdoutLine: {'line': b'-- Generating done\n'}
[1.723930] (my_cpp_pkg) StdoutLine: {'line': b'-- Build files have been written to: /home/salman/ros2_ws/build/my_cpp_pkg\n'}
[1.762301] (my_cpp_pkg) StdoutLine: {'line': b'\x1b[35m\x1b[1mScanning dependencies of target robot_news_station\x1b[0m\n'}
[1.803836] (my_cpp_pkg) StdoutLine: {'line': b'[ 50%] Built target cpp_node\n'}
[1.810583] (-) TimerEvent: {}
[1.911185] (-) TimerEvent: {}
[1.918900] (my_cpp_pkg) StdoutLine: {'line': b'[ 75%] \x1b[32mBuilding CXX object CMakeFiles/robot_news_station.dir/src/robot_news_station.cpp.o\x1b[0m\n'}
[2.011330] (-) TimerEvent: {}
[2.111830] (-) TimerEvent: {}
[2.212244] (-) TimerEvent: {}
[2.312917] (-) TimerEvent: {}
[2.413292] (-) TimerEvent: {}
[2.513748] (-) TimerEvent: {}
[2.614202] (-) TimerEvent: {}
[2.714602] (-) TimerEvent: {}
[2.814976] (-) TimerEvent: {}
[2.915335] (-) TimerEvent: {}
[3.015744] (-) TimerEvent: {}
[3.116121] (-) TimerEvent: {}
[3.217200] (-) TimerEvent: {}
[3.317578] (-) TimerEvent: {}
[3.417996] (-) TimerEvent: {}
[3.518408] (-) TimerEvent: {}
[3.618830] (-) TimerEvent: {}
[3.719194] (-) TimerEvent: {}
[3.820500] (-) TimerEvent: {}
[3.920893] (-) TimerEvent: {}
[4.021261] (-) TimerEvent: {}
[4.121651] (-) TimerEvent: {}
[4.222159] (-) TimerEvent: {}
[4.322601] (-) TimerEvent: {}
[4.422997] (-) TimerEvent: {}
[4.523373] (-) TimerEvent: {}
[4.623787] (-) TimerEvent: {}
[4.725005] (-) TimerEvent: {}
[4.825477] (-) TimerEvent: {}
[4.925901] (-) TimerEvent: {}
[5.026291] (-) TimerEvent: {}
[5.126665] (-) TimerEvent: {}
[5.227061] (-) TimerEvent: {}
[5.327740] (-) TimerEvent: {}
[5.428224] (-) TimerEvent: {}
[5.528750] (-) TimerEvent: {}
[5.629247] (-) TimerEvent: {}
[5.729636] (-) TimerEvent: {}
[5.830046] (-) TimerEvent: {}
[5.930482] (-) TimerEvent: {}
[6.032414] (-) TimerEvent: {}
[6.133222] (-) TimerEvent: {}
[6.233803] (-) TimerEvent: {}
[6.334324] (-) TimerEvent: {}
[6.434860] (-) TimerEvent: {}
[6.535320] (-) TimerEvent: {}
[6.635821] (-) TimerEvent: {}
[6.736491] (-) TimerEvent: {}
[6.836982] (-) TimerEvent: {}
[6.937420] (-) TimerEvent: {}
[7.037930] (-) TimerEvent: {}
[7.138586] (-) TimerEvent: {}
[7.239174] (-) TimerEvent: {}
[7.339743] (-) TimerEvent: {}
[7.440176] (-) TimerEvent: {}
[7.541325] (-) TimerEvent: {}
[7.641910] (-) TimerEvent: {}
[7.712337] (my_cpp_pkg) StdoutLine: {'line': b'[100%] \x1b[32m\x1b[1mLinking CXX executable robot_news_station\x1b[0m\n'}
[7.742090] (-) TimerEvent: {}
[7.843016] (-) TimerEvent: {}
[7.943561] (-) TimerEvent: {}
[8.044365] (-) TimerEvent: {}
[8.144839] (-) TimerEvent: {}
[8.156054] (my_cpp_pkg) StdoutLine: {'line': b'[100%] Built target robot_news_station\n'}
[8.180639] (my_cpp_pkg) CommandEnded: {'returncode': 0}
[8.229525] (my_cpp_pkg) JobProgress: {'identifier': 'my_cpp_pkg', 'progress': 'install'}
[8.246309] (my_cpp_pkg) Command: {'cmd': ['/usr/bin/cmake', '--install', '/home/salman/ros2_ws/build/my_cpp_pkg'], 'cwd': '/home/salman/ros2_ws/build/my_cpp_pkg', 'env': OrderedDict([('GJS_DEBUG_TOPICS', 'JS ERROR;JS LOG'), ('LESSOPEN', '| /usr/bin/lesspipe %s'), ('LANGUAGE', 'en_CA:en'), ('USER', 'salman'), ('SSH_AGENT_PID', '1679'), ('XDG_SESSION_TYPE', 'x11'), ('SHLVL', '1'), ('LD_LIBRARY_PATH', '/opt/ros/foxy/opt/yaml_cpp_vendor/lib:/opt/ros/foxy/opt/rviz_ogre_vendor/lib:/opt/ros/foxy/lib/x86_64-linux-gnu:/opt/ros/foxy/lib'), ('HOME', '/home/salman'), ('OLDPWD', '/opt/ros/foxy/include'), ('DESKTOP_SESSION', 'ubuntu'), ('ROS_PYTHON_VERSION', '3'), ('GNOME_SHELL_SESSION_MODE', 'ubuntu'), ('GTK_MODULES', 'gail:atk-bridge'), ('MANAGERPID', '1465'), ('DBUS_SESSION_BUS_ADDRESS', 'unix:path=/run/user/1000/bus'), ('COLORTERM', 'truecolor'), ('IM_CONFIG_PHASE', '1'), ('COLCON_PREFIX_PATH', '/home/salman/ros2_ws/install'), ('ROS_DISTRO', 'foxy'), ('LOGNAME', 'salman'), ('JOURNAL_STREAM', '8:34979'), ('_', '/usr/bin/colcon'), ('ROS_VERSION', '2'), ('XDG_SESSION_CLASS', 'user'), ('USERNAME', 'salman'), ('TERM', 'xterm-256color'), ('GNOME_DESKTOP_SESSION_ID', 'this-is-deprecated'), ('ROS_LOCALHOST_ONLY', '0'), ('WINDOWPATH', '2'), ('PATH', '/opt/ros/foxy/bin:/usr/local/sbin:/usr/local/bin:/usr/sbin:/usr/bin:/sbin:/bin:/usr/games:/usr/local/games:/snap/bin'), ('SESSION_MANAGER', 'local/salman-VirtualBox:@/tmp/.ICE-unix/1739,unix/salman-VirtualBox:/tmp/.ICE-unix/1739'), ('INVOCATION_ID', 'd49a0b2eefc54d7a9fca6ed1cc338133'), ('XDG_MENU_PREFIX', 'gnome-'), ('GNOME_TERMINAL_SCREEN', '/org/gnome/Terminal/screen/2e3081bc_7db2_42ae_bdd2_779879fb6bf3'), ('XDG_RUNTIME_DIR', '/run/user/1000'), ('DISPLAY', ':0'), ('LANG', 'en_US.UTF-8'), ('XDG_CURRENT_DESKTOP', 'ubuntu:GNOME'), ('XMODIFIERS', '@im=ibus'), ('XDG_SESSION_DESKTOP', 'ubuntu'), ('XAUTHORITY', '/run/user/1000/gdm/Xauthority'), ('LS_COLORS', 'rs=0:di=01;34:ln=01;36:mh=00:pi=40;33:so=01;35:do=01;35:bd=40;33;01:cd=40;33;01:or=40;31;01:mi=00:su=37;41:sg=30;43:ca=30;41:tw=30;42:ow=34;42:st=37;44:ex=01;32:*.tar=01;31:*.tgz=01;31:*.arc=01;31:*.arj=01;31:*.taz=01;31:*.lha=01;31:*.lz4=01;31:*.lzh=01;31:*.lzma=01;31:*.tlz=01;31:*.txz=01;31:*.tzo=01;31:*.t7z=01;31:*.zip=01;31:*.z=01;31:*.dz=01;31:*.gz=01;31:*.lrz=01;31:*.lz=01;31:*.lzo=01;31:*.xz=01;31:*.zst=01;31:*.tzst=01;31:*.bz2=01;31:*.bz=01;31:*.tbz=01;31:*.tbz2=01;31:*.tz=01;31:*.deb=01;31:*.rpm=01;31:*.jar=01;31:*.war=01;31:*.ear=01;31:*.sar=01;31:*.rar=01;31:*.alz=01;31:*.ace=01;31:*.zoo=01;31:*.cpio=01;31:*.7z=01;31:*.rz=01;31:*.cab=01;31:*.wim=01;31:*.swm=01;31:*.dwm=01;31:*.esd=01;31:*.jpg=01;35:*.jpeg=01;35:*.mjpg=01;35:*.mjpeg=01;35:*.gif=01;35:*.bmp=01;35:*.pbm=01;35:*.pgm=01;35:*.ppm=01;35:*.tga=01;35:*.xbm=01;35:*.xpm=01;35:*.tif=01;35:*.tiff=01;35:*.png=01;35:*.svg=01;35:*.svgz=01;35:*.mng=01;35:*.pcx=01;35:*.mov=01;35:*.mpg=01;35:*.mpeg=01;35:*.m2v=01;35:*.mkv=01;35:*.webm=01;35:*.ogm=01;35:*.mp4=01;35:*.m4v=01;35:*.mp4v=01;35:*.vob=01;35:*.qt=01;35:*.nuv=01;35:*.wmv=01;35:*.asf=01;35:*.rm=01;35:*.rmvb=01;35:*.flc=01;35:*.avi=01;35:*.fli=01;35:*.flv=01;35:*.gl=01;35:*.dl=01;35:*.xcf=01;35:*.xwd=01;35:*.yuv=01;35:*.cgm=01;35:*.emf=01;35:*.ogv=01;35:*.ogx=01;35:*.aac=00;36:*.au=00;36:*.flac=00;36:*.m4a=00;36:*.mid=00;36:*.midi=00;36:*.mka=00;36:*.mp3=00;36:*.mpc=00;36:*.ogg=00;36:*.ra=00;36:*.wav=00;36:*.oga=00;36:*.opus=00;36:*.spx=00;36:*.xspf=00;36:'), ('GNOME_TERMINAL_SERVICE', ':1.85'), ('SSH_AUTH_SOCK', '/run/user/1000/keyring/ssh'), ('AMENT_PREFIX_PATH', '/home/salman/ros2_ws/install/my_py_pkg:/home/salman/ros2_ws/install/my_cpp_pkg:/home/salman/ros2_ws/install/cpp_oop:/home/salman/ros2_ws/install/cppOOP:/opt/ros/foxy'), ('SHELL', '/bin/bash'), ('QT_ACCESSIBILITY', '1'), ('GDMSESSION', 'ubuntu'), ('LESSCLOSE', '/usr/bin/lesspipe %s %s'), ('GPG_AGENT_INFO', '/run/user/1000/gnupg/S.gpg-agent:0:1'), ('GJS_DEBUG_OUTPUT', 'stderr'), ('QT_IM_MODULE', 'ibus'), ('PWD', '/home/salman/ros2_ws/build/my_cpp_pkg'), ('LC_ALL', 'en_US.UTF-8'), ('XDG_CONFIG_DIRS', '/etc/xdg/xdg-ubuntu:/etc/xdg'), ('XDG_DATA_DIRS', '/usr/share/ubuntu:/usr/local/share/:/usr/share/:/var/lib/snapd/desktop'), ('PYTHONPATH', '/home/salman/ros2_ws/install/my_py_pkg/lib/python3.8/site-packages:/opt/ros/foxy/lib/python3.8/site-packages'), ('COLCON', '1'), ('VTE_VERSION', '6003'), ('CMAKE_PREFIX_PATH', '/home/salman/ros2_ws/install/my_cpp_pkg:/home/salman/ros2_ws/install/cpp_oop:/home/salman/ros2_ws/install/cppOOP:/home/salman/ros2_ws/install/my_py_pkg:/opt/ros/foxy')]), 'shell': False}
[8.248576] (-) TimerEvent: {}
[8.264344] (my_cpp_pkg) StdoutLine: {'line': b'-- Install configuration: ""\n'}
[8.268735] (my_cpp_pkg) StdoutLine: {'line': b'-- Up-to-date: /home/salman/ros2_ws/install/my_cpp_pkg/lib/my_cpp_pkg/cpp_node\n'}
[8.269257] (my_cpp_pkg) StdoutLine: {'line': b'-- Installing: /home/salman/ros2_ws/install/my_cpp_pkg/lib/my_cpp_pkg/robot_news_station\n'}
[8.271084] (my_cpp_pkg) StdoutLine: {'line': b'-- Set runtime path of "/home/salman/ros2_ws/install/my_cpp_pkg/lib/my_cpp_pkg/robot_news_station" to ""\n'}
[8.273142] (my_cpp_pkg) StdoutLine: {'line': b'-- Up-to-date: /home/salman/ros2_ws/install/my_cpp_pkg/share/ament_index/resource_index/package_run_dependencies/my_cpp_pkg\n'}
[8.273686] (my_cpp_pkg) StdoutLine: {'line': b'-- Up-to-date: /home/salman/ros2_ws/install/my_cpp_pkg/share/ament_index/resource_index/parent_prefix_path/my_cpp_pkg\n'}
[8.278086] (my_cpp_pkg) StdoutLine: {'line': b'-- Up-to-date: /home/salman/ros2_ws/install/my_cpp_pkg/share/my_cpp_pkg/environment/ament_prefix_path.sh\n'}
[8.278584] (my_cpp_pkg) StdoutLine: {'line': b'-- Installing: /home/salman/ros2_ws/install/my_cpp_pkg/share/my_cpp_pkg/environment/ament_prefix_path.dsv\n'}
[8.278892] (my_cpp_pkg) StdoutLine: {'line': b'-- Up-to-date: /home/salman/ros2_ws/install/my_cpp_pkg/share/my_cpp_pkg/environment/path.sh\n'}
[8.279414] (my_cpp_pkg) StdoutLine: {'line': b'-- Installing: /home/salman/ros2_ws/install/my_cpp_pkg/share/my_cpp_pkg/environment/path.dsv\n'}
[8.279784] (my_cpp_pkg) StdoutLine: {'line': b'-- Up-to-date: /home/salman/ros2_ws/install/my_cpp_pkg/share/my_cpp_pkg/local_setup.bash\n'}
[8.279955] (my_cpp_pkg) StdoutLine: {'line': b'-- Up-to-date: /home/salman/ros2_ws/install/my_cpp_pkg/share/my_cpp_pkg/local_setup.sh\n'}
[8.280089] (my_cpp_pkg) StdoutLine: {'line': b'-- Up-to-date: /home/salman/ros2_ws/install/my_cpp_pkg/share/my_cpp_pkg/local_setup.zsh\n'}
[8.280432] (my_cpp_pkg) StdoutLine: {'line': b'-- Installing: /home/salman/ros2_ws/install/my_cpp_pkg/share/my_cpp_pkg/local_setup.dsv\n'}
[8.280803] (my_cpp_pkg) StdoutLine: {'line': b'-- Installing: /home/salman/ros2_ws/install/my_cpp_pkg/share/my_cpp_pkg/package.dsv\n'}
[8.281160] (my_cpp_pkg) StdoutLine: {'line': b'-- Up-to-date: /home/salman/ros2_ws/install/my_cpp_pkg/share/ament_index/resource_index/packages/my_cpp_pkg\n'}
[8.281442] (my_cpp_pkg) StdoutLine: {'line': b'-- Up-to-date: /home/salman/ros2_ws/install/my_cpp_pkg/share/my_cpp_pkg/cmake/my_cpp_pkgConfig.cmake\n'}
[8.281808] (my_cpp_pkg) StdoutLine: {'line': b'-- Up-to-date: /home/salman/ros2_ws/install/my_cpp_pkg/share/my_cpp_pkg/cmake/my_cpp_pkgConfig-version.cmake\n'}
[8.282120] (my_cpp_pkg) StdoutLine: {'line': b'-- Up-to-date: /home/salman/ros2_ws/install/my_cpp_pkg/share/my_cpp_pkg/package.xml\n'}
[8.287877] (my_cpp_pkg) CommandEnded: {'returncode': 0}
[8.348910] (-) TimerEvent: {}
[8.401601] (my_cpp_pkg) JobEnded: {'identifier': 'my_cpp_pkg', 'rc': 0}
[8.403143] (-) EventReactorShutdown: {}
